<?xml version="1.0" encoding="UTF-8" standalone="no"?>
<svg
   xmlns:dc="http://purl.org/dc/elements/1.1/"
   xmlns:cc="http://creativecommons.org/ns#"
   xmlns:rdf="http://www.w3.org/1999/02/22-rdf-syntax-ns#"
   xmlns:svg="http://www.w3.org/2000/svg"
   xmlns="http://www.w3.org/2000/svg"
   xmlns:sodipodi="http://sodipodi.sourceforge.net/DTD/sodipodi-0.dtd"
   xmlns:inkscape="http://www.inkscape.org/namespaces/inkscape"
   width="241.4649mm"
   height="240.8517mm"
   viewBox="0 0 241.4649 240.8517"
   version="1.1"
   id="svg1356"
   inkscape:version="1.0 (4035a4fb49, 2020-05-01)"
   sodipodi:docname="layer-product-grid.svg">
  <defs
     id="defs1350" />
  <sodipodi:namedview
     id="base"
     pagecolor="#ffffff"
     bordercolor="#666666"
     borderopacity="1.0"
     inkscape:pageopacity="0.0"
     inkscape:pageshadow="2"
     inkscape:zoom="0.72489111"
     inkscape:cx="408.72848"
     inkscape:cy="404.51272"
     inkscape:document-units="mm"
     inkscape:current-layer="layer1"
     inkscape:document-rotation="0"
     showgrid="false"
     inkscape:window-width="1920"
     inkscape:window-height="1016"
     inkscape:window-x="0"
     inkscape:window-y="0"
     inkscape:window-maximized="1"
     fit-margin-top="0"
     fit-margin-left="0"
     fit-margin-right="0"
     fit-margin-bottom="0" />
  <metadata
     id="metadata1353">
    <rdf:RDF>
      <cc:Work
         rdf:about="">
        <dc:format>image/svg+xml</dc:format>
        <dc:type
           rdf:resource="http://purl.org/dc/dcmitype/StillImage" />
        <dc:title />
      </cc:Work>
    </rdf:RDF>
  </metadata>
  <g
     inkscape:label="Layer 1"
     inkscape:groupmode="layer"
     id="layer1"
     transform="translate(5.8671618,16.727789)">
    <text
       xml:space="preserve"
       style="font-style:normal;font-weight:normal;font-size:10.5833px;line-height:1.25;font-family:sans-serif;letter-spacing:0px;word-spacing:0px;fill:#000000;fill-opacity:1;stroke:none;stroke-width:0.264583"
       x="9.808342"
       y="-8.8729963"
       id="text2199"><tspan
         sodipodi:role="line"
         id="tspan2197"
         x="9.808342"
         y="-8.8729963"
         style="stroke-width:0.264583">1</tspan></text>
    <text
       id="text2203"
       y="-8.8729963"
       x="30.975008"
       style="font-style:normal;font-weight:normal;font-size:10.5833px;line-height:1.25;font-family:sans-serif;letter-spacing:0px;word-spacing:0px;fill:#000000;fill-opacity:1;stroke:none;stroke-width:0.264583"
       xml:space="preserve"><tspan
         style="stroke-width:0.264583"
         y="-8.8729963"
         x="30.975008"
         id="tspan2201"
         sodipodi:role="line">2,4</tspan></text>
    <text
       xml:space="preserve"
       style="font-style:normal;font-weight:normal;font-size:10.5833px;line-height:1.25;font-family:sans-serif;letter-spacing:0px;word-spacing:0px;fill:#000000;fill-opacity:1;stroke:none;stroke-width:0.264583"
       x="57.433346"
       y="-8.8729963"
       id="text2223"><tspan
         sodipodi:role="line"
         id="tspan2221"
         x="57.433346"
         y="-8.8729963"
         style="stroke-width:0.264583">5,8,7,9</tspan></text>
    <text
       id="text2227"
       y="-8.8729963"
       x="105.05833"
       style="font-style:normal;font-weight:normal;font-size:10.5833px;line-height:1.25;font-family:sans-serif;letter-spacing:0px;word-spacing:0px;fill:#000000;fill-opacity:1;stroke:none;stroke-width:0.264583"
       xml:space="preserve"><tspan
         style="stroke-width:0.264583"
         y="-8.8729963"
         x="105.05833"
         id="tspan2225"
         sodipodi:role="line">12,26,40,43,14,46,20,49</tspan></text>
    <text
       id="text2231"
       y="4.6372666"
       x="-3.25459"
       style="font-style:normal;font-weight:normal;font-size:10.5833px;line-height:1.25;font-family:sans-serif;letter-spacing:0px;word-spacing:0px;fill:#000000;fill-opacity:1;stroke:none;stroke-width:0.264583"
       xml:space="preserve"
       transform="rotate(90)"><tspan
         style="stroke-width:0.264583"
         y="4.6372666"
         x="-3.25459"
         id="tspan2229"
         sodipodi:role="line">0</tspan></text>
    <text
       xml:space="preserve"
       style="font-style:normal;font-weight:normal;font-size:10.5833px;line-height:1.25;font-family:sans-serif;letter-spacing:0px;word-spacing:0px;fill:#000000;fill-opacity:1;stroke:none;stroke-width:0.264583"
       x="17.912073"
       y="4.6372666"
       id="text2235"
       transform="rotate(90)"><tspan
         sodipodi:role="line"
         id="tspan2233"
         x="17.912073"
         y="4.6372666"
         style="stroke-width:0.264583">1,5</tspan></text>
    <text
       id="text2239"
       y="4.6372666"
       x="44.370411"
       style="font-style:normal;font-weight:normal;font-size:10.5833px;line-height:1.25;font-family:sans-serif;letter-spacing:0px;word-spacing:0px;fill:#000000;fill-opacity:1;stroke:none;stroke-width:0.264583"
       xml:space="preserve"
       transform="rotate(90)"><tspan
         style="stroke-width:0.264583"
         y="4.6372666"
         x="44.370411"
         id="tspan2237"
         sodipodi:role="line">6,8,7,9</tspan></text>
    <text
       xml:space="preserve"
       style="font-style:normal;font-weight:normal;font-size:10.5833px;line-height:1.25;font-family:sans-serif;letter-spacing:0px;word-spacing:0px;fill:#000000;fill-opacity:1;stroke:none;stroke-width:0.264583"
       x="91.995407"
       y="4.6372666"
       id="text2243"
       transform="rotate(90)"><tspan
         sodipodi:role="line"
         id="tspan2241"
         x="91.995407"
         y="4.6372666"
         style="stroke-width:0.264583">11,41,31,26,33,39,20,42</tspan></text>
    <rect
       y="-6.6368093"
       x="6.6529012"
       height="13.493228"
       width="13.576632"
       id="rect835-3"
       style="fill:none;fill-opacity:0.992126;stroke:#000000;stroke-width:1.4068;stroke-miterlimit:4;stroke-dasharray:none" />
    <text
       id="text2703"
       y="-1.4646628"
       x="7.6916757"
       style="font-style:normal;font-weight:normal;font-size:4.93889px;line-height:1.25;font-family:sans-serif;letter-spacing:0px;word-spacing:0px;fill:#000000;fill-opacity:1;stroke:none;stroke-width:0.264583"
       xml:space="preserve"><tspan
         style="stroke-width:0.264583"
         y="-1.4646628"
         x="7.6916757"
         id="tspan2701"
         sodipodi:role="line">1</tspan></text>
    <text
       xml:space="preserve"
       style="font-style:normal;font-weight:normal;font-size:4.93889px;line-height:1.25;font-family:sans-serif;letter-spacing:0px;word-spacing:0px;fill:#000000;fill-opacity:1;stroke:none;stroke-width:0.264583"
       x="16.347326"
       y="5.6034923"
       id="text2707"><tspan
         sodipodi:role="line"
         id="tspan2705"
         x="16.347326"
         y="5.6034923"
         style="stroke-width:0.264583">1</tspan></text>
    <rect
       style="fill:none;fill-opacity:0.992126;stroke:#000000;stroke-width:1.4151;stroke-miterlimit:4;stroke-dasharray:none"
       id="rect2709"
       width="13.484898"
       height="18.825731"
       x="6.6570511"
       y="19.910845" />
    <text
       xml:space="preserve"
       style="font-style:normal;font-weight:normal;font-size:4.93889px;line-height:1.25;font-family:sans-serif;letter-spacing:0px;word-spacing:0px;fill:#000000;fill-opacity:1;stroke:none;stroke-width:0.264583"
       x="7.6916757"
       y="24.993671"
       id="text2713"><tspan
         sodipodi:role="line"
         id="tspan2711"
         x="7.6916757"
         y="24.993671"
         style="stroke-width:0.264583">2</tspan></text>
    <text
       id="text2717"
       y="37.353493"
       x="16.347326"
       style="font-style:normal;font-weight:normal;font-size:4.93889px;line-height:1.25;font-family:sans-serif;letter-spacing:0px;word-spacing:0px;fill:#000000;fill-opacity:1;stroke:none;stroke-width:0.264583"
       xml:space="preserve"><tspan
         style="stroke-width:0.264583"
         y="37.353493"
         x="16.347326"
         id="tspan2715"
         sodipodi:role="line">6</tspan></text>
    <rect
       y="-6.6368194"
       x="31.0802"
       height="13.493226"
       width="18.593225"
       id="rect2719"
       style="fill:none;fill-opacity:0.992126;stroke:#000000;stroke-width:1.40678;stroke-miterlimit:4;stroke-dasharray:none" />
    <text
       id="text2723"
       y="-1.4646624"
       x="32.03334"
       style="font-style:normal;font-weight:normal;font-size:4.93889px;line-height:1.25;font-family:sans-serif;letter-spacing:0px;word-spacing:0px;fill:#000000;fill-opacity:1;stroke:none;stroke-width:0.264583"
       xml:space="preserve"><tspan
         style="stroke-width:0.264583"
         y="-1.4646624"
         x="32.03334"
         id="tspan2721"
         sodipodi:role="line">2</tspan></text>
    <text
       xml:space="preserve"
       style="font-style:normal;font-weight:normal;font-size:4.93889px;line-height:1.25;font-family:sans-serif;letter-spacing:0px;word-spacing:0px;fill:#000000;fill-opacity:1;stroke:none;stroke-width:0.264583"
       x="45.980659"
       y="5.6034913"
       id="text2727"><tspan
         sodipodi:role="line"
         id="tspan2725"
         x="45.980659"
         y="5.6034913"
         style="stroke-width:0.264583">4</tspan></text>
    <rect
       style="fill:none;fill-opacity:0.992126;stroke:#000000;stroke-width:1.44297;stroke-miterlimit:4;stroke-dasharray:none"
       id="rect2729"
       width="38.557026"
       height="13.457027"
       x="57.792393"
       y="-6.6187243" />
    <text
       xml:space="preserve"
       style="font-style:normal;font-weight:normal;font-size:4.93889px;line-height:1.25;font-family:sans-serif;letter-spacing:0px;word-spacing:0px;fill:#000000;fill-opacity:1;stroke:none;stroke-width:0.264583"
       x="58.49168"
       y="-1.4646624"
       id="text2733"><tspan
         sodipodi:role="line"
         id="tspan2731"
         x="58.49168"
         y="-1.4646624"
         style="stroke-width:0.264583">5</tspan></text>
    <text
       id="text2737"
       y="5.6034913"
       x="92.018158"
       style="font-style:normal;font-weight:normal;font-size:4.93889px;line-height:1.25;font-family:sans-serif;letter-spacing:0px;word-spacing:0px;fill:#000000;fill-opacity:1;stroke:none;stroke-width:0.264583"
       xml:space="preserve"><tspan
         style="stroke-width:0.264583"
         y="5.6034913"
         x="92.018158"
         id="tspan2735"
         sodipodi:role="line">9</tspan></text>
    <rect
       y="-6.5826445"
       x="106.0564"
       height="13.384868"
       width="128.48486"
       id="rect2739"
       style="fill:none;fill-opacity:0.992126;stroke:#000000;stroke-width:1.51513;stroke-miterlimit:4;stroke-dasharray:none" />
    <text
       id="text2743"
       y="-1.4646624"
       x="106.64584"
       style="font-style:normal;font-weight:normal;font-size:4.93889px;line-height:1.25;font-family:sans-serif;letter-spacing:0px;word-spacing:0px;fill:#000000;fill-opacity:1;stroke:none;stroke-width:0.264583"
       xml:space="preserve"><tspan
         style="stroke-width:0.264583"
         y="-1.4646624"
         x="106.64584"
         id="tspan2741"
         sodipodi:role="line">12</tspan></text>
    <text
       xml:space="preserve"
       style="font-style:normal;font-weight:normal;font-size:4.93889px;line-height:1.25;font-family:sans-serif;letter-spacing:0px;word-spacing:0px;fill:#000000;fill-opacity:1;stroke:none;stroke-width:0.264583"
       x="227.61723"
       y="5.6034899"
       id="text2747"><tspan
         sodipodi:role="line"
         id="tspan2745"
         x="227.61723"
         y="5.6034899"
         style="stroke-width:0.264583">49</tspan></text>
    <rect
       style="fill:none;fill-opacity:0.992126;stroke:#000000;stroke-width:1.40837;stroke-miterlimit:4;stroke-dasharray:none"
       id="rect2749"
       width="18.591637"
       height="18.591633"
       x="31.080994"
       y="19.90748" />
    <text
       xml:space="preserve"
       style="font-style:normal;font-weight:normal;font-size:4.93889px;line-height:1.25;font-family:sans-serif;letter-spacing:0px;word-spacing:0px;fill:#000000;fill-opacity:1;stroke:none;stroke-width:0.264583"
       x="32.03334"
       y="24.993671"
       id="text2753"><tspan
         sodipodi:role="line"
         id="tspan2751"
         x="32.03334"
         y="24.993671"
         style="stroke-width:0.264583">3</tspan></text>
    <text
       id="text2757"
       y="37.353493"
       x="45.980652"
       style="font-style:normal;font-weight:normal;font-size:4.93889px;line-height:1.25;font-family:sans-serif;letter-spacing:0px;word-spacing:0px;fill:#000000;fill-opacity:1;stroke:none;stroke-width:0.264583"
       xml:space="preserve"><tspan
         style="stroke-width:0.264583"
         y="37.353493"
         x="45.980652"
         id="tspan2755"
         sodipodi:role="line">9</tspan></text>
    <rect
       y="19.913465"
       x="57.781078"
       height="18.062798"
       width="38.579655"
       id="rect2759"
       style="fill:none;fill-opacity:0.992126;stroke:#000000;stroke-width:1.42034;stroke-miterlimit:4;stroke-dasharray:none" />
    <text
       id="text2763"
       y="24.993671"
       x="58.49168"
       style="font-style:normal;font-weight:normal;font-size:4.93889px;line-height:1.25;font-family:sans-serif;letter-spacing:0px;word-spacing:0px;fill:#000000;fill-opacity:1;stroke:none;stroke-width:0.264583"
       xml:space="preserve"><tspan
         style="stroke-width:0.264583"
         y="24.993671"
         x="58.49168"
         id="tspan2761"
         sodipodi:role="line">6</tspan></text>
    <text
       xml:space="preserve"
       style="font-style:normal;font-weight:normal;font-size:4.93889px;line-height:1.25;font-family:sans-serif;letter-spacing:0px;word-spacing:0px;fill:#000000;fill-opacity:1;stroke:none;stroke-width:0.264583"
       x="89.240013"
       y="36.824326"
       id="text2767"><tspan
         sodipodi:role="line"
         id="tspan2765"
         x="89.240013"
         y="36.824326"
         style="stroke-width:0.264583">14</tspan></text>
    <rect
       style="fill:none;fill-opacity:0.992126;stroke:#000000;stroke-width:1.49976;stroke-miterlimit:4;stroke-dasharray:none"
       id="rect2769"
       width="128.50024"
       height="18.500238"
       x="106.04871"
       y="19.953175" />
    <text
       xml:space="preserve"
       style="font-style:normal;font-weight:normal;font-size:4.93889px;line-height:1.25;font-family:sans-serif;letter-spacing:0px;word-spacing:0px;fill:#000000;fill-opacity:1;stroke:none;stroke-width:0.264583"
       x="106.64584"
       y="24.993671"
       id="text2773"><tspan
         sodipodi:role="line"
         id="tspan2771"
         x="106.64584"
         y="24.993671"
         style="stroke-width:0.264583">13</tspan></text>
    <text
       id="text2777"
       y="37.353497"
       x="227.48491"
       style="font-style:normal;font-weight:normal;font-size:4.93889px;line-height:1.25;font-family:sans-serif;letter-spacing:0px;word-spacing:0px;fill:#000000;fill-opacity:1;stroke:none;stroke-width:0.264583"
       xml:space="preserve"><tspan
         style="stroke-width:0.264583"
         y="37.353497"
         x="227.48491"
         id="tspan2775"
         sodipodi:role="line">54</tspan></text>
    <rect
       y="46.645576"
       x="106.04752"
       height="38.502579"
       width="128.50258"
       id="rect2779"
       style="fill:none;fill-opacity:0.992126;stroke:#000000;stroke-width:1.49742;stroke-miterlimit:4;stroke-dasharray:none" />
    <text
       id="text2783"
       y="51.452007"
       x="106.64582"
       style="font-style:normal;font-weight:normal;font-size:4.93889px;line-height:1.25;font-family:sans-serif;letter-spacing:0px;word-spacing:0px;fill:#000000;fill-opacity:1;stroke:none;stroke-width:0.264583"
       xml:space="preserve"><tspan
         style="stroke-width:0.264583"
         y="51.452007"
         x="106.64582"
         id="tspan2781"
         sodipodi:role="line">18</tspan></text>
    <text
       xml:space="preserve"
       style="font-style:normal;font-weight:normal;font-size:4.93889px;line-height:1.25;font-family:sans-serif;letter-spacing:0px;word-spacing:0px;fill:#000000;fill-opacity:1;stroke:none;stroke-width:0.264583"
       x="227.48491"
       y="83.920166"
       id="text2787"><tspan
         sodipodi:role="line"
         id="tspan2785"
         x="227.48491"
         y="83.920166"
         style="stroke-width:0.264583">58</tspan></text>
    <rect
       style="fill:none;fill-opacity:0.992126;stroke:#000000;stroke-width:1.45976;stroke-miterlimit:4;stroke-dasharray:none"
       id="rect2789"
       width="38.540241"
       height="38.540237"
       x="57.800789"
       y="46.626747" />
    <text
       xml:space="preserve"
       style="font-style:normal;font-weight:normal;font-size:4.93889px;line-height:1.25;font-family:sans-serif;letter-spacing:0px;word-spacing:0px;fill:#000000;fill-opacity:1;stroke:none;stroke-width:0.264583"
       x="58.49168"
       y="51.452007"
       id="text2793"><tspan
         sodipodi:role="line"
         id="tspan2791"
         x="58.49168"
         y="51.452007"
         style="stroke-width:0.264583">11</tspan></text>
    <text
       id="text2797"
       y="83.920166"
       x="89.372307"
       style="font-style:normal;font-weight:normal;font-size:4.93889px;line-height:1.25;font-family:sans-serif;letter-spacing:0px;word-spacing:0px;fill:#000000;fill-opacity:1;stroke:none;stroke-width:0.264583"
       xml:space="preserve"><tspan
         style="stroke-width:0.264583"
         y="83.920166"
         x="89.372307"
         id="tspan2795"
         sodipodi:role="line">18</tspan></text>
    <rect
       y="46.616577"
       x="31.096519"
       height="38.560577"
       width="18.560574"
       id="rect2799"
       style="fill:none;fill-opacity:0.992126;stroke:#000000;stroke-width:1.43942;stroke-miterlimit:4;stroke-dasharray:none" />
    <text
       id="text2803"
       y="51.452007"
       x="32.03334"
       style="font-style:normal;font-weight:normal;font-size:4.93889px;line-height:1.25;font-family:sans-serif;letter-spacing:0px;word-spacing:0px;fill:#000000;fill-opacity:1;stroke:none;stroke-width:0.264583"
       xml:space="preserve"><tspan
         style="stroke-width:0.264583"
         y="51.452007"
         x="32.03334"
         id="tspan2801"
         sodipodi:role="line">8</tspan></text>
    <text
       xml:space="preserve"
       style="font-style:normal;font-weight:normal;font-size:4.93889px;line-height:1.25;font-family:sans-serif;letter-spacing:0px;word-spacing:0px;fill:#000000;fill-opacity:1;stroke:none;stroke-width:0.264583"
       x="42.805649"
       y="83.920166"
       id="text2807"><tspan
         sodipodi:role="line"
         id="tspan2805"
         x="42.805649"
         y="83.920166"
         style="stroke-width:0.264583">13</tspan></text>
    <rect
       style="fill:none;fill-opacity:0.992126;stroke:#000000;stroke-width:1.43896;stroke-miterlimit:4;stroke-dasharray:none"
       id="rect2809"
       width="13.461039"
       height="38.331387"
       x="6.6689811"
       y="46.616348" />
    <text
       xml:space="preserve"
       style="font-style:normal;font-weight:normal;font-size:4.93889px;line-height:1.25;font-family:sans-serif;letter-spacing:0px;word-spacing:0px;fill:#000000;fill-opacity:1;stroke:none;stroke-width:0.264583"
       x="7.6916771"
       y="51.452007"
       id="text2813"><tspan
         sodipodi:role="line"
         id="tspan2811"
         x="7.6916771"
         y="51.452007"
         style="stroke-width:0.264583">7</tspan></text>
    <text
       id="text2817"
       y="83.920166"
       x="13.172321"
       style="font-style:normal;font-weight:normal;font-size:4.93889px;line-height:1.25;font-family:sans-serif;letter-spacing:0px;word-spacing:0px;fill:#000000;fill-opacity:1;stroke:none;stroke-width:0.264583"
       xml:space="preserve"><tspan
         style="stroke-width:0.264583"
         y="83.920166"
         x="13.172321"
         id="tspan2815"
         sodipodi:role="line">10</tspan></text>
    <rect
       y="94.88147"
       x="6.7070613"
       height="128.48488"
       width="13.384871"
       id="rect2819"
       style="fill:none;fill-opacity:0.992126;stroke:#000000;stroke-width:1.51512;stroke-miterlimit:4;stroke-dasharray:none" />
    <text
       id="text2823"
       y="99.606163"
       x="7.6916771"
       style="font-style:normal;font-weight:normal;font-size:4.93889px;line-height:1.25;font-family:sans-serif;letter-spacing:0px;word-spacing:0px;fill:#000000;fill-opacity:1;stroke:none;stroke-width:0.264583"
       xml:space="preserve"><tspan
         style="stroke-width:0.264583"
         y="99.606163"
         x="7.6916771"
         id="tspan2821"
         sodipodi:role="line">12</tspan></text>
    <text
       xml:space="preserve"
       style="font-style:normal;font-weight:normal;font-size:4.93889px;line-height:1.25;font-family:sans-serif;letter-spacing:0px;word-spacing:0px;fill:#000000;fill-opacity:1;stroke:none;stroke-width:0.264583"
       x="13.172317"
       y="222.03275"
       id="text2827"><tspan
         sodipodi:role="line"
         id="tspan2825"
         x="13.172317"
         y="222.03275"
         style="stroke-width:0.264583">43</tspan></text>
    <rect
       style="fill:none;fill-opacity:0.992126;stroke:#000000;stroke-width:1.49976;stroke-miterlimit:4;stroke-dasharray:none"
       id="rect2829"
       width="18.500242"
       height="128.50024"
       x="31.12669"
       y="94.873787" />
    <text
       xml:space="preserve"
       style="font-style:normal;font-weight:normal;font-size:4.93889px;line-height:1.25;font-family:sans-serif;letter-spacing:0px;word-spacing:0px;fill:#000000;fill-opacity:1;stroke:none;stroke-width:0.264583"
       x="32.03334"
       y="99.606163"
       id="text2833"><tspan
         sodipodi:role="line"
         id="tspan2831"
         x="32.03334"
         y="99.606163"
         style="stroke-width:0.264583">13</tspan></text>
    <text
       id="text2837"
       y="222.03275"
       x="42.276485"
       style="font-style:normal;font-weight:normal;font-size:4.93889px;line-height:1.25;font-family:sans-serif;letter-spacing:0px;word-spacing:0px;fill:#000000;fill-opacity:1;stroke:none;stroke-width:0.264583"
       xml:space="preserve"><tspan
         style="stroke-width:0.264583"
         y="222.03275"
         x="42.276485"
         id="tspan2835"
         sodipodi:role="line">46</tspan></text>
    <rect
       y="94.872612"
       x="57.819614"
       height="128.50259"
       width="38.502594"
       id="rect2839"
       style="fill:none;fill-opacity:0.992126;stroke:#000000;stroke-width:1.49741;stroke-miterlimit:4;stroke-dasharray:none" />
    <text
       id="text2843"
       y="99.606163"
       x="59.550014"
       style="font-style:normal;font-weight:normal;font-size:4.93889px;line-height:1.25;font-family:sans-serif;letter-spacing:0px;word-spacing:0px;fill:#000000;fill-opacity:1;stroke:none;stroke-width:0.264583"
       xml:space="preserve"><tspan
         style="stroke-width:0.264583"
         y="99.606163"
         x="59.550014"
         id="tspan2841"
         sodipodi:role="line">16</tspan></text>
    <text
       xml:space="preserve"
       style="font-style:normal;font-weight:normal;font-size:4.93889px;line-height:1.25;font-family:sans-serif;letter-spacing:0px;word-spacing:0px;fill:#000000;fill-opacity:1;stroke:none;stroke-width:0.264583"
       x="89.372314"
       y="222.03275"
       id="text2847"><tspan
         sodipodi:role="line"
         id="tspan2845"
         x="89.372314"
         y="222.03275"
         style="stroke-width:0.264583">51</tspan></text>
    <rect
       style="fill:none;fill-opacity:0.992126;stroke:#000000;stroke-width:1.49759;stroke-miterlimit:4;stroke-dasharray:none"
       id="rect2849"
       width="128.50241"
       height="128.50241"
       x="106.04758"
       y="94.872704" />
    <text
       xml:space="preserve"
       style="font-style:normal;font-weight:normal;font-size:4.93889px;line-height:1.25;font-family:sans-serif;letter-spacing:0px;word-spacing:0px;fill:#000000;fill-opacity:1;stroke:none;stroke-width:0.264583"
       x="107.17498"
       y="99.606163"
       id="text2853"><tspan
         sodipodi:role="line"
         id="tspan2851"
         x="107.17498"
         y="99.606163"
         style="stroke-width:0.264583">23</tspan></text>
    <text
       id="text2857"
       y="222.03275"
       x="227.48499"
       style="font-style:normal;font-weight:normal;font-size:4.93889px;line-height:1.25;font-family:sans-serif;letter-spacing:0px;word-spacing:0px;fill:#000000;fill-opacity:1;stroke:none;stroke-width:0.264583"
       xml:space="preserve"><tspan
         style="stroke-width:0.264583"
         y="222.03275"
         x="227.48499"
         id="tspan2855"
         sodipodi:role="line">91</tspan></text>
  </g>
</svg>
